{
  "instrument": {
    "reportVersion": "1",
    "ReportDefCode": "projects.internal.producthub.profilemanager.jobdescription.fullexport.workflow.pdf"
  },
  "static": {
    "reportInfo": {
      "reportTitle": "Job Description",
      "position": "FOR THE POSITION OF:",
      "copyright": "© Korn Ferry 2018. All rights reserved. Personal and Confidential"
    },
    "labels": {
      "kornferry": "Korn Ferry"
    },
    "aboutKF": {
      "title": "About Korn Ferry",
      "desc1": "Korn Ferry is a global organizational consulting firm. We help companies design their organization – the structure, the roles and responsibilities, as well as how they compensate, develop and motivate their people. As importantly, we help organizations select and hire the talent they need to execute their strategy. Our approximately 7,000 colleagues serve clients in more than 50 countries.",
      "copyright": "© Korn Ferry 2018. All rights reserved. Personal and Confidential",
      "disclaimer": "For the sake of linguistic simplicity in this report, where the masculine form is used, the feminine form should also be understood to be included."
    }
  },
  "data": {
    "id": 5163,
    "title": "SME Director",
    "description": "",
    "status": "NEW",
    "additionalComments": "",
    "companyId": 14193,
    "jdModelId": 2,
    "jobLevel": "Mid Level Manager",
    "jobRoleTypeId": "SLB3",
    "standardHayGrade": "19",
    "companyDescription": "Leaseplan",
    "finalizedResponsibilities": 1,
    "actuateReportUrl": "https://ihub.haygroup.biz/iportal/executereport.do?__executableName=/Dev/Reporting/EXE/JobDescription/JobDescription.rptdesign&userid=DevActivateISUser01&password=NoV2XjDGb&invokeSubmit=true&pCompanyId=14193",
    "interviewGuideUrl": "https://products.kornferry.com/v1/hrms/successprofiles/interviewguide?jobId=5163&reportType=InterviewGuide&reportLocale=en-US&reportClientId=14193",
    "familyName": "Sales",
    "subFamilyName": "Territory Sales",
    "isTemplateJob": false,
    "isCustomizableForAssessments": true,
    "kfLevelMappings": {
      "management": {
        "globalCode": "Lvl_04",
        "label": "Mid Level Manager"
      },
      "roleLevel": {
        "id": 2,
        "label": "Managerial"
      },
      "scope": {
        "globalCode": "Lvl_04_01",
        "label": "Business Manager of Managers"
      }
    },
    "parentJobDetails": {
      "id": 5161,
      "title": "SME Director",
      "description": "Responsible for achieving sales goals through effective management of sales representatives",
      "jobRoleTypeId": "SLB3",
      "standardHayGrade": "19"
    },
    "grade": {
      "standardHayGrade": 0
    },
    "sources": [
      {
        "id": 3199,
        "type": "CREATED_BY",
        "firstName": "Ellis",
        "lastName": "Stam",
        "effectiveDateTime": 1521144648407
      },
      {
        "id": 3199,
        "type": "LAST_MODIFIED_BY",
        "firstName": "Ellis",
        "lastName": "Stam",
        "effectiveDateTime": 1521144648407
      }
    ],
    "sections": [
      {
        "id": 16,
        "name": "Responsibilities",
        "description": "Responsibilities are the specific tasks or duties that must be performed well to succeed in a role.",
        "order": 1,
        "isRequiredForPublish": true,
        "isEditable": true,
        "code": "RESPONSIBILITY",
        "codeId": "1",
        "sectionGroup": {
          "id": 1,
          "code": "JOB_DESCRIPTION",
          "name": "Job Description",
          "description": "Job Description"
        },
        "categories": [
          {
            "id": "103",
            "name": "Business Development",
            "description": "The development and delivery of the organization's go to market strategy.",
            "subCategories": [
              {
                "id": 486,
                "shortProfile": "A3",
                "type": "C",
                "userEdited": false,
                "descriptions": [
                  {
                    "name": "Sales",
                    "level": 8,
                    "description": "Sells complex, often customized products and services to significant customers and/or manages a sales department to achieve sales targets over a significant area."
                  }
                ]
              }
            ]
          },
          {
            "id": "104",
            "name": "Client & Customer Management",
            "description": "The process by which client, customers and business partners and dealt with and managed",
            "subCategories": [
              {
                "id": 487,
                "shortProfile": "A2",
                "type": "C",
                "userEdited": false,
                "descriptions": [
                  {
                    "name": "Client & Customer Management (External)",
                    "level": 8,
                    "description": "Manages key client and customer relationships, typically by using account teams to ensure their ongoing satisfaction and loyalty toward the organization."
                  }
                ]
              }
            ]
          },
          {
            "id": "112",
            "name": "People",
            "description": "The leadership and management of people to ensure delivery of specified outcomes",
            "subCategories": [
              {
                "id": 514,
                "shortProfile": "A2",
                "type": "C",
                "userEdited": false,
                "descriptions": [
                  {
                    "name": "Leadership and Direction",
                    "level": 7,
                    "description": "Develops and/or delivers a plan for a specific area of responsibility by managing others."
                  }
                ]
              }
            ]
          },
          {
            "id": "106",
            "name": "Financial",
            "description": "The planning, managing, directing, organization and control of the financial resources of an organization",
            "subCategories": [
              {
                "id": 493,
                "shortProfile": "A1",
                "type": "S",
                "userEdited": false,
                "descriptions": [
                  {
                    "name": "Budgeting & Costing",
                    "level": 7,
                    "description": "Develops and/or delivers budget plans for own area with guidance from senior colleagues."
                  }
                ]
              }
            ]
          },
          {
            "id": "108",
            "name": "Information",
            "description": "The application of techniques to collect manage and disseminate information within and outside the organization to enable managers to make quicker and better decisions.",
            "subCategories": [
              {
                "id": 501,
                "shortProfile": "A2",
                "type": "S",
                "userEdited": false,
                "descriptions": [
                  {
                    "name": "Data Collection & Analysis",
                    "level": 7,
                    "description": "Analyzes key themes using data from a wide range of sources and identifies possible impacts on the business."
                  }
                ]
              },
              {
                "id": 502,
                "shortProfile": "A2",
                "type": "S",
                "userEdited": false,
                "descriptions": [
                  {
                    "name": "Data Management",
                    "level": 7,
                    "description": "Manages the development and/or operation of significant aspects of the data management system with guidance from senior colleagues."
                  }
                ]
              }
            ]
          },
          {
            "id": "111",
            "name": "Organization",
            "description": "The design, execution and control of an organization's operational capabilities.",
            "subCategories": [
              {
                "id": 512,
                "shortProfile": "A3",
                "type": "S",
                "userEdited": false,
                "descriptions": [
                  {
                    "name": "Operational Management",
                    "level": 7,
                    "description": "Develops and/or delivers a plan and outcomes for an operational area with guidance from senior colleagues."
                  }
                ]
              }
            ]
          },
          {
            "id": "112",
            "name": "People",
            "description": "The leadership and management of people to ensure delivery of specified outcomes",
            "subCategories": [
              {
                "id": 513,
                "shortProfile": "A2",
                "type": "S",
                "userEdited": false,
                "descriptions": [
                  {
                    "name": "Building Capability",
                    "level": 7,
                    "description": "Takes responsibility for implementing a team's formal development framework with guidance from senior colleagues, while informally coaching others throughout the organization in area of expertise."
                  }
                ]
              },
              {
                "id": 515,
                "shortProfile": "A2",
                "type": "S",
                "userEdited": false,
                "descriptions": [
                  {
                    "name": "Performance Management",
                    "level": 7,
                    "description": "Sets medium term objectives and takes responsibility for implement a team's performance management systems with guidance from senior colleagues."
                  }
                ]
              }
            ]
          }
        ]
      },
      {
        "id": 17,
        "name": "Behavioral Competencies",
        "description": "Behavioral competencies are the skills that matter most for success in a role. Examples include customer focus, drives results, and collaborates. These skills enable employees to make a meaningful impact.",
        "order": 2,
        "isRequiredForPublish": true,
        "isEditable": true,
        "code": "BEHAVIORAL_SKILLS",
        "codeId": "1",
        "sectionGroup": {
          "id": 1,
          "code": "JOB_DESCRIPTION",
          "name": "Job Description",
          "description": "Job Description"
        },
        "categories": [
          {
            "id": "143",
            "name": "All Behaviors",
            "description": "All Behaviors",
            "subCategories": [
              {
                "id": 525,
                "cmmId": "F7BCDA05-A6ED-4220-B783-FC518C7EB07F",
                "userEdited": true,
                "globalCode": "ATT",
                "descriptions": [
                  {
                    "name": "Attracts top talent",
                    "level": 5,
                    "levelLabel": "5 Contributes through others  Meets"
                  }
                ]
              },
              {
                "id": 549,
                "cmmId": "DA6773E8-6883-458A-ACE7-DE922FA7E7CB",
                "userEdited": true,
                "globalCode": "AEX",
                "descriptions": [
                  {
                    "name": "Plans and aligns",
                    "level": 3,
                    "levelLabel": "3 Contributes independently Meets",
                    "description": "Plans and prioritizes work to meet commitments aligned with organizational goals. For example, outlines clear plans that put actions in a logical sequence; conveys some time frames. Aligns own work with relevant workgroups. Takes some steps to reduce bottlenecks and speed up the work."
                  }
                ]
              },
              {
                "id": 552,
                "cmmId": "4BF28B7E-E83F-417E-B481-93A0139D4B06",
                "userEdited": true,
                "globalCode": "DRE",
                "descriptions": [
                  {
                    "name": "Drives results",
                    "level": 4,
                    "levelLabel": "4 Contributes independently Exceeds",
                    "description": "Consistently achieves results, even under tough circumstances. For example, regularly pushes self to achieve outstanding outcomes; consistently establishes bold goals for own performance; is passionate about excellent results and significant contributions. Shows great tenacity to complete goals/initiatives in a timely way."
                  }
                ]
              },
              {
                "id": 535,
                "cmmId": "F7BB2EE3-B3BE-4FB0-BC93-114AA5F7F0D9",
                "userEdited": true,
                "globalCode": "CFO",
                "descriptions": [
                  {
                    "name": "Customer focus",
                    "level": 5,
                    "levelLabel": "5 Contributes through others  Meets",
                    "description": "Builds strong customer relationships and delivers customer-centric solutions. For example, solicits customer feedback and data; conveys a clear understanding of the level of service the team is providing; takes action when standards are not met by team; aligns business process with customer needs."
                  }
                ]
              },
              {
                "id": 548,
                "cmmId": "858E8525-38D5-4BF3-9BF7-C3EA7689BFE2",
                "userEdited": true,
                "globalCode": "PER",
                "descriptions": [
                  {
                    "name": "Persuades",
                    "level": 5,
                    "levelLabel": "5 Contributes through others  Meets",
                    "description": "Uses compelling arguments to gain the support and commitment of others. For example, states position with conviction and persuasive rationale. Negotiates skillfully; wins concessions without the other party feeling harmed or frustrated. Achieves a good balance between defending own position and adapting to others' needs."
                  }
                ]
              },
              {
                "id": 550,
                "cmmId": "A5292E24-1573-4608-AE90-97EB941B14E4",
                "userEdited": true,
                "globalCode": "BRE",
                "descriptions": [
                  {
                    "name": "Being resilient",
                    "level": 3,
                    "levelLabel": "3 Contributes independently Meets",
                    "description": "Rebounds from setbacks and adversity when facing difficult situations. For example, is calm and professional in difficult situations; continues to work toward objectives. Overcomes obstacles without becoming discouraged; draws lessons from failures. Recovers from setbacks and adversity."
                  }
                ]
              },
              {
                "id": 536,
                "cmmId": "2E1B5753-FB28-465E-9DC1-B263624DC011",
                "userEdited": true,
                "globalCode": "DQU",
                "descriptions": [
                  {
                    "name": "Decision quality",
                    "level": 4,
                    "levelLabel": "4 Contributes independently Exceeds",
                    "description": "Makes good and timely decisions that keep the organization moving forward. For example, consistently demonstrates strong judgment; may be sought out by others for expertise and guidance. Takes smart, independent action in urgent and non-routine situations, knows when to escalate for others' involvement."
                  }
                ]
              },
              {
                "id": 530,
                "cmmId": "318D86F8-3846-4DA8-A866-6EFF6F40B4F5",
                "userEdited": true,
                "globalCode": "COL",
                "descriptions": [
                  {
                    "name": "Collaborates",
                    "level": 4,
                    "levelLabel": "4 Contributes independently Exceeds",
                    "description": "Builds partnerships and works collaboratively with others to meet shared objectives. For example, enlists a range of stakeholders to add value; ensures they are well informed and surprises are avoided. Confronts and challenges \"us vs. them\"; shows strong appreciation for others' efforts toward shared goals."
                  }
                ]
              },
              {
                "id": 531,
                "cmmId": "18EDACC1-0A25-4B6C-945F-B2148F845BB3",
                "userEdited": true,
                "globalCode": "COM",
                "descriptions": [
                  {
                    "name": "Communicates effectively",
                    "level": 4,
                    "levelLabel": "4 Contributes independently Exceeds",
                    "description": "Develops and delivers multi-mode communications that convey a clear understanding of the unique needs of different audiences. For example, disseminates knowledge, insights, and updates in a polished, precise, and compelling manner. Demonstrates a deep interest in others' comments. Creates rich documents and reports."
                  }
                ]
              },
              {
                "id": 540,
                "cmmId": "6F074F52-775D-432C-B0E6-3CB4502EC23C",
                "userEdited": true,
                "globalCode": "EIN",
                "descriptions": [
                  {
                    "name": "Drives engagement",
                    "level": 5,
                    "levelLabel": "5 Contributes through others  Meets",
                    "description": "Creates a climate where people are motivated to do their best to help the organization achieve its objectives. For example, understands people's motivations, engages them in the work, and builds a sense of energy toward common goals. Ensures that others can make decisions and take accountability. Celebrates progress."
                  }
                ]
              },
              {
                "id": 537,
                "cmmId": "98C145EA-7636-4EAC-BB89-2DDB49AF7D82",
                "userEdited": true,
                "globalCode": "DTA",
                "descriptions": [
                  {
                    "name": "Develops talent",
                    "level": 5,
                    "levelLabel": "5 Contributes through others  Meets",
                    "description": "Develops people to meet both their career goals and the organization's goals. For example, emphasizes the importance of learning, urges people to build new skills, and provides opportunities for them to develop their careers. Provides useful real-time coaching, development activities, and stretch assignments."
                  }
                ]
              },
              {
                "id": 560,
                "cmmId": "BC9D2CF5-5279-4061-82C1-43F77735A1AE",
                "userEdited": true,
                "globalCode": "ITR",
                "descriptions": [
                  {
                    "name": "Instills trust",
                    "level": 4,
                    "levelLabel": "4 Contributes independently Exceeds",
                    "description": "Gains the confidence and trust of others through honesty, integrity, and authenticity. For example, is consistently honest and straightforward; shares uncomfortable information in a clear and helpful manner. Maintains high ethical standards and professional codes of conduct."
                  }
                ]
              },
              {
                "id": 555,
                "cmmId": "2361B13E-A3F4-4989-8DDD-E9ADAA016A49",
                "userEdited": true,
                "globalCode": "SAD",
                "descriptions": [
                  {
                    "name": "Situational adaptability",
                    "level": 4,
                    "levelLabel": "4 Contributes independently Exceeds",
                    "description": "Adapts approach and demeanor in real time to match the shifting demands of different situations. For example, sees even subtle cues to adapt; deploys a wide range of behaviors to stay effective. Exemplifies flexibility and resourcefulness; responds deftly to a variety of challenges and situations."
                  }
                ]
              }
            ]
          }
        ]
      },
      {
        "id": 2,
        "name": "Technical Competencies",
        "description": "Technical skills are the knowledge and skills needed to perform effectively in a role.",
        "order": 3,
        "isRequiredForPublish": true,
        "isEditable": true,
        "code": "TECHNICAL_SKILLS",
        "codeId": "1",
        "sectionGroup": {
          "id": 1,
          "code": "JOB_DESCRIPTION",
          "name": "Job Description",
          "description": "Job Description"
        },
        "categories": [
          {
            "id": "17",
            "name": "GENERIC KNOWLEDGE SKILLS & ABILITIES",
            "description": "GENERIC KNOWLEDGE SKILLS & ABILITIES",
            "subCategories": [
              {
                "id": 67,
                "userEdited": false,
                "descriptions": [
                  {
                    "name": "Verbal Communication",
                    "level": 5,
                    "description": "Acts with expertise as the organization's authority on using clear and effective verbal communications skills to express ideas, request actions and formulate plans or policies."
                  }
                ]
              },
              {
                "id": 48,
                "userEdited": false,
                "descriptions": [
                  {
                    "name": "Commercial Acumen",
                    "level": 5,
                    "description": "Acts as the organization's authority and established expert to develop solutions based on an understanding of the business environment and objectives."
                  }
                ]
              }
            ]
          },
          {
            "id": "18",
            "name": "SHARED / CROSS FUNCTION KNOWLEDGE SKILLS & ABILITIES",
            "description": "SHARED / CROSS FUNCTION KNOWLEDGE SKILLS & ABILITIES",
            "subCategories": [
              {
                "id": 76,
                "userEdited": false,
                "descriptions": [
                  {
                    "name": "Customer and Market Analysis",
                    "level": 5,
                    "description": "Applies expertise to serve as the organizational authority on conducting research and analyzing data in order to develop a comprehensive understanding of customer and market conditions that enables maximum return on investments."
                  }
                ]
              }
            ]
          },
          {
            "id": "17",
            "name": "GENERIC KNOWLEDGE SKILLS & ABILITIES",
            "description": "GENERIC KNOWLEDGE SKILLS & ABILITIES",
            "subCategories": [
              {
                "id": 60,
                "userEdited": false,
                "descriptions": [
                  {
                    "name": "Planning and Organizing",
                    "level": 5,
                    "description": "Uses expertise to act as organizational authority on planning, organizing, prioritizing and overseeing activities to efficiently meet business objectives."
                  }
                ]
              },
              {
                "id": 49,
                "userEdited": false,
                "descriptions": [
                  {
                    "name": "Computer skills",
                    "level": 5,
                    "description": "Acts as the organization's authority and established expert on understanding and using standard office equipment and standard software packages to support business processes."
                  }
                ]
              }
            ]
          },
          {
            "id": "18",
            "name": "SHARED / CROSS FUNCTION KNOWLEDGE SKILLS & ABILITIES",
            "description": "SHARED / CROSS FUNCTION KNOWLEDGE SKILLS & ABILITIES",
            "subCategories": [
              {
                "id": 72,
                "userEdited": false,
                "descriptions": [
                  {
                    "name": "Action Planning",
                    "level": 5,
                    "description": "Applies expertise to act as the organizational authority on developing appropriate plans or performing necessary actions based on recommendations and requirements."
                  }
                ]
              }
            ]
          },
          {
            "id": "17",
            "name": "GENERIC KNOWLEDGE SKILLS & ABILITIES",
            "description": "GENERIC KNOWLEDGE SKILLS & ABILITIES",
            "subCategories": [
              {
                "id": 61,
                "userEdited": false,
                "descriptions": [
                  {
                    "name": "Policy and procedures",
                    "level": 4,
                    "description": "Uses comprehensive knowledge and skills to work independently while providing guidance and training to others on developing, monitoring, interpreting and understanding policies and procedures, while making sure they match organizational strategies and objectives."
                  }
                ]
              },
              {
                "id": 52,
                "userEdited": false,
                "descriptions": [
                  {
                    "name": "Data Collection and analysis",
                    "level": 4,
                    "description": "Works independently and provides guidance and training to others on analyzing data trends for use in reports to help guide decision making."
                  }
                ]
              },
              {
                "id": 53,
                "userEdited": false,
                "descriptions": [
                  {
                    "name": "Data Management",
                    "level": 4,
                    "description": "Applies comprehensive knowledge and skills to work independently while providing guidance and training to others on acquiring, organizing, protecting and processing data to fulfill business objectives."
                  }
                ]
              }
            ]
          }
        ]
      },
      {
        "id": 3,
        "name": "Education",
        "description": "Education is the level of general education typically needed succeed in a role.",
        "order": 4,
        "isRequiredForPublish": true,
        "isEditable": true,
        "code": "EDUCATION",
        "codeId": "1",
        "sectionGroup": {
          "id": 1,
          "code": "JOB_DESCRIPTION",
          "name": "Job Description",
          "description": "Job Description"
        },
        "categories": [
          {
            "id": "35",
            "name": "All Education",
            "description": "All Education levels",
            "subCategories": [
              {
                "id": 165,
                "userEdited": false,
                "descriptions": [
                  {
                    "name": "General Education",
                    "level": 6,
                    "description": "University / Post Graduate (Masters Degree)"
                  }
                ]
              }
            ]
          }
        ]
      },
      {
        "id": 4,
        "name": "Experience",
        "description": "Experience is the level of general and managerial experience typically needed succeed in a role.",
        "order": 5,
        "isRequiredForPublish": true,
        "isEditable": true,
        "code": "EXPERIENCE",
        "codeId": "1",
        "sectionGroup": {
          "id": 1,
          "code": "JOB_DESCRIPTION",
          "name": "Job Description",
          "description": "Job Description"
        },
        "categories": [
          {
            "id": "40",
            "name": "Work Experience",
            "description": "Work Experience Description",
            "subCategories": [
              {
                "id": 166,
                "userEdited": false,
                "descriptions": [
                  {
                    "name": "General Experience",
                    "level": 7,
                    "description": "Substantial general work experience together with comprehensive  job related experience in own area of expertise to fully competent level.  (Over 6 years to 10 years )"
                  }
                ]
              },
              {
                "id": 167,
                "userEdited": false,
                "descriptions": [
                  {
                    "name": "Managerial Experience",
                    "level": 6,
                    "description": "Experience of planning and managing resources to deliver predetermined objectives as specified by more senior managers (Over 3 years to 6 years)"
                  }
                ]
              }
            ]
          }
        ]
      },
      {
        "id": 18,
        "name": "Work Characteristics",
        "description": "Work Characteristics help identify the most important behavioral competencies required to be successful in a role.",
        "order": 7,
        "isRequiredForPublish": true,
        "isEditable": true,
        "code": "WORK_CHARACTERISTICS",
        "codeId": "1",
        "sectionGroup": {
          "id": 1,
          "code": "JOB_DESCRIPTION",
          "name": "Job Description",
          "description": "Job Description"
        },
        "categories": [
          {
            "id": "50",
            "name": "Emotional",
            "description": "Emotional Competencies",
            "subCategories": [
              {
                "id": 243,
                "descriptions": [
                  {
                    "name": "Collaboration or Partnering",
                    "level": 1,
                    "description": "Collaboration or partnering - Low importance - work characteristic/responsibility not required"
                  }
                ]
              },
              {
                "id": 242,
                "descriptions": [
                  {
                    "name": "Managing Conflict",
                    "level": 1,
                    "description": "Managing Conflict - Low importance - work characteristic/responsibility not required"
                  }
                ]
              },
              {
                "id": 241,
                "descriptions": [
                  {
                    "name": "Dealing with Emotional Stress",
                    "level": 1,
                    "description": "Dealing with Stress - Low importance - work characteristic/responsibility not required"
                  }
                ]
              }
            ]
          }
        ]
      }
    ],
    "assessments": [
      {
        "id": 4,
        "name": "Cognitive: Logical",
        "kfasAssessmentId": "10",
        "type": "ELEMENTS_LOGICAL",
        "order": "6",
        "isMandatory": false,
        "targetScore": 35,
        "isTimedAssessment": true,
        "estimatedTimeInSeconds": 900
      },
      {
        "id": 2,
        "name": "Cognitive: Numerical",
        "kfasAssessmentId": "2",
        "type": "ELEMENTS_NUMERICAL",
        "order": "5",
        "isMandatory": true,
        "targetScore": 35,
        "isTimedAssessment": true,
        "estimatedTimeInSeconds": 960
      },
      {
        "id": 3,
        "name": "Cognitive: Verbal",
        "kfasAssessmentId": "5",
        "type": "ELEMENTS_VERBAL",
        "order": "4",
        "isMandatory": true,
        "targetScore": 35,
        "isTimedAssessment": true,
        "estimatedTimeInSeconds": 960
      },
      {
        "id": 8,
        "name": "Drivers",
        "kfasAssessmentId": "24",
        "type": "DRIVERS",
        "order": "3",
        "isMandatory": true,
        "targetScore": 35,
        "isTimedAssessment": false,
        "estimatedTimeInSeconds": 600
      },
      {
        "id": 9,
        "name": "Traits",
        "kfasAssessmentId": "25",
        "type": "TRAITS",
        "order": "2",
        "isMandatory": true,
        "targetScore": 35,
        "isTimedAssessment": false,
        "estimatedTimeInSeconds": 900
      },
      {
        "id": 1,
        "name": "Competencies",
        "kfasAssessmentId": "23",
        "type": "COMPETENCIES",
        "order": "1",
        "isMandatory": true,
        "targetScore": 35,
        "isTimedAssessment": false,
        "estimatedTimeInSeconds": 1200
      }
    ]
  }
}