{
    "id": "projects.internal.producthub.profilemanager.jobdescription.fullexport",
    "manifestRef": "projects/internal/producthub/profilemanager/jobdescription/fullexport",
    "dataSourceRef": "projects/internal/producthub/profilemanager/jobdescription/fullexport"
}